,$v_3$,$v_4$,$v_5$,$v_6$,$v_7$,$v_8$
$\sigma_2$,,,\textcolor{Red}{N},\textcolor{OliveGreen}{Y},\textcolor{OliveGreen}{Y},\textcolor{OliveGreen}{Y}
$\sigma_3$,,,\textcolor{Red}{N},\textcolor{OliveGreen}{Y},\textcolor{OliveGreen}{Y},\textcolor{OliveGreen}{Y}
$\sigma_4$,,,\textcolor{Red}{N},\textcolor{OliveGreen}{Y},\textcolor{OliveGreen}{Y},\textcolor{OliveGreen}{Y}
$\sigma_5$,,,\textcolor{Red}{N},\textcolor{OliveGreen}{Y},\textcolor{OliveGreen}{Y},\textcolor{OliveGreen}{Y}
$\sigma_6$,,,\textcolor{Red}{N},\textcolor{OliveGreen}{Y},\textcolor{OliveGreen}{Y},\textcolor{OliveGreen}{Y}
$\sigma_7$,,,\textcolor{Red}{N},\textcolor{OliveGreen}{Y},\textcolor{OliveGreen}{Y},\textcolor{OliveGreen}{Y}
$\sigma_8$,,,\textcolor{Red}{N},\textcolor{Red}{N},\textcolor{OliveGreen}{Y},\textcolor{OliveGreen}{Y}
$\sigma_9$,,,\textcolor{Red}{N},\textcolor{Red}{N},\textcolor{OliveGreen}{Y},\textcolor{OliveGreen}{Y}
$\sigma_{10}$,,,\textcolor{Red}{N},\textcolor{Red}{N},\textcolor{OliveGreen}{Y},\textcolor{OliveGreen}{Y}
$\sigma_{11}$,,,\textcolor{Red}{N},\textcolor{Red}{N},\textcolor{OliveGreen}{Y},\textcolor{OliveGreen}{Y}
$\sigma_{12}$,,,\textcolor{Red}{N},\textcolor{Red}{N},\textcolor{OliveGreen}{Y},\textcolor{OliveGreen}{Y}
$\sigma_{13}$,,,\textcolor{Red}{N},\textcolor{Red}{N},\textcolor{OliveGreen}{Y},\textcolor{OliveGreen}{Y}
$\sigma_{14}$,,,,\textcolor{Red}{N},\textcolor{OliveGreen}{Y},\textcolor{OliveGreen}{Y}
$\sigma_{15}$,,,,\textcolor{Red}{N},\textcolor{OliveGreen}{Y},\textcolor{OliveGreen}{Y}
$\sigma_{16}$,,,,\textcolor{Red}{N},\textcolor{OliveGreen}{Y},\textcolor{OliveGreen}{Y}
$\sigma_{17}$,,,,\textcolor{Red}{N},\textcolor{Red}{N},\textcolor{OliveGreen}{Y}
$\sigma_{18}$,,,,,\textcolor{Red}{N},\textcolor{OliveGreen}{Y}
$\sigma_{19}$,,,,,\textcolor{Red}{N},\textcolor{OliveGreen}{Y}
$\sigma_{20}$,,,,,\textcolor{Red}{N},\textcolor{OliveGreen}{Y}
$\sigma_{21}$,,,,,\textcolor{Red}{N},\textcolor{OliveGreen}{Y}
$\sigma_{22}$,,,,,\textcolor{Red}{N},\textcolor{OliveGreen}{Y}
$\sigma_{23}$,,,,,\textcolor{Red}{N},\textcolor{OliveGreen}{Y}
$\sigma_{24}$,,,,,\textcolor{Red}{N},\textcolor{OliveGreen}{Y}
$\sigma_{25}$,,,,,\textcolor{Red}{N},\textcolor{OliveGreen}{Y}
$\sigma_{26}$,,,,,\textcolor{Red}{N},\textcolor{OliveGreen}{Y}
$\sigma_{27}$,,,,,\textcolor{Red}{N},\textcolor{Red}{N}
$\sigma_{28}$,,,,,\textcolor{Red}{N},\textcolor{Red}{N}
$\sigma_{29}$,,,,,\textcolor{Red}{N},\textcolor{Red}{N}
